anyio==3.3.4
apturl==0.5.2
asgiref==3.4.1
bcrypt==3.1.7
blinker==1.4
Brlapi==0.7.0
certifi==2019.11.28
chardet==3.0.4
click==8.0.3
colorama==0.4.3
command-not-found==0.3
cryptography==2.8
cupshelpers==1.0
dbus-python==1.2.16
defer==1.0.6
distro==1.4.0
distro-info===0.23ubuntu1
dnspython==1.16.0
duplicity==0.8.12.0
entrypoints==0.3
fastapi==0.70.0
fastapi-login==1.7.3
fasteners==0.14.1
Flask==2.0.2
Flask-SQLAlchemy==2.5.1
future==0.18.2
gpg===1.13.1-unknown
greenlet==1.1.2
gunicorn==20.1.0
h11==0.12.0
httplib2==0.14.0
httptools==0.2.0
idna==2.8
itsdangerous==2.0.1
Jinja2==3.0.2
keyring==18.0.1
language-selector==0.1
launchpadlib==1.10.13
lazr.restfulclient==0.14.2
lazr.uri==1.0.3
lockfile==0.12.2
louis==3.12.0
macaroonbakery==1.3.1
Mako==1.1.0
Markdown==3.1.1
MarkupSafe==2.0.1
monotonic==1.5
netifaces==0.10.4
oauthlib==3.1.0
olefile==0.46
packaging==20.3
paramiko==2.6.0
passlib==1.7.4
pexpect==4.6.0
Pillow==7.0.0
protobuf==3.6.1
pycairo==1.16.2
pycrypto==2.6.1
pycups==1.9.73
pydantic==1.8.2
Pygments==2.3.1
PyGObject==3.36.0
PyJWT==1.7.1
pymacaroons==0.13.0
pymongo==3.12.1
PyNaCl==1.3.0
pyparsing==2.4.6
pyRFC3339==1.1
python-apt==2.0.0+ubuntu0.20.4.6
python-dateutil==2.7.3
python-debian===0.1.36ubuntu1
python-dotenv==0.19.1
python-multipart==0.0.5
pytz==2019.3
pyxdg==0.26
PyYAML==5.3.1
reportlab==3.5.34
requests==2.22.0
requests-unixsocket==0.2.0
SecretStorage==2.3.1
simplejson==3.16.0
six==1.14.0
sniffio==1.2.0
SQLAlchemy==1.4.26
starlette==0.16.0
systemd-python==234
typing-extensions==3.10.0.2
ubuntu-advantage-tools==27.3
ubuntu-drivers-common==0.0.0
ufw==0.36
unattended-upgrades==0.1
urllib3==1.25.8
usb-creator==0.3.7
uvicorn==0.15.0
uvloop==0.16.0
wadllib==1.3.3
watchgod==0.7
websockets==10.0
Werkzeug==2.0.2
xkit==0.0.0
